{
  "Property": "Property Code",
  "Address": "Actual Street Address",
  "PropertyName": "Name of Property",
  "PropertyType": "Type of Property: R is residential, C commercial, M mixed",
  "PropertyMgr": "Property Manager",
  "PropertyCoordinator": "Property Coordinator",
  "numFloors": "Number of Floors",
  "numUnits": "Number of Units",
  "numBasementUnits": "Number Of Basement Units",
  "UnitsPerFloor": "Units per floor",
  "ConstructionType": "Construction Type",
  "BuildingType": "Building Type",
  "ExteriorCovering": "Exterior Covering",
  "BuildingAge": "Building Age",
  "6StoryApartment": "6 Story Apartment",
  "PropertySize": "Property Size",
  "numofBuildings": "Number of Buildings",
  "CurrentUse": "Current Use",
  "Comments": "Comments",
  "Roof": {
    "name":"Roof",
    "Contractor": "Contractor",
    "ContractorPhone": "Contractor Phone",
    "RoofAccessLocation": "Roof Access Location",
    "Type": "Type",
    "Age": "Age",
    "Warranty": "Warranty (Yes/No)"
  },
  "Doors and Windows": {
    "name":"Doors and Windows",
    "BuildingFrontDoorType": "Building Front Door Type",
    "FrontDoorKeyType":"Front Door Key Type",
    "FrontDoorCode": "Front Door Code",
    "FrontSecurityDoorType": "Front Security Door Type",
    "FrontSecurityDoorKeyType": "Front Security Door Key Type",
    "FrontSecurityDoorCode": "Front Security Door Code",
    "RearSecurityDoortype": "Rear Security Door Type",
    "RearSecurityDoorKeyType": "Rear Security Door Key Type",
    "RearSecurityDoorCode": "Rear Security Door Code",
    "GarageDoor": "Garage Door",
    "Company":"Company",
    "CompanyPhone":"CompanyPhone",
    "Windows": "Windows ",
    "Contractor": "Contractor",
    "ContractorPhone": "Contractor Phone",
    "StormWindows": "Storm Windows (Yes/No)",
    "Other":"Other"
  },
  "Electrical": {
    "ServiceCompany": "Service Company",
    "Phone":"Service Company Phone",
    "AptCircuitBreaker": "Apartment Circuit Breaker",
    "LocationofService": "Location Of Service",
    "InApartment": "In Apartment (Yes/No)",
    "Amps":"Number of Amps",
    "PublicCircuitBreaker": "Public Circuit Breaker",
    "FuseBox":"Fusebox",
    "LightTimer": "Light Timer (Yes/No)",
    "PhotoCells": "Photo Cells",
    "Location": "Location",
    "name":"Electrical"
  },
  "Elevator": {
    "Contractor": "Contractor",
    "ContractorPhone":"Contractor Phone",
    "numofElevators": "Number of Elevators",
    "Freight":"Freight (Yes/No)",
    "ElevatorRoomLocation": "Elevator Room Location",
    "KeyType": "Key Type",
    "CommentsRepair": "Comments on Repair",
    "InspectionDate":"Inspection Date",
    "customerNumber":"Elevator Customer Account Number",
    "ContactAndPhone": "Contact and Contact Phone Number",
    "Passenger": "Passenger (Yes/No)",
    "name":"Elevator"
  },
  "Extermination": {
    "Company": "Company",
    "CompanyPhone": "Company Phone",
    "Contact": "Contact",
    "ContactPhone": "Contact Phone",
    "Contract": "Contract (Yes/No)",
    "Frequency": "Frequency",
    "name":"Extermination"
  },
  "Fire Alarm": {
    "MonitorCompany": "Monitor Company",
    "MonitorCompanyPhone": "Monitor Company Phone",
    "accountnumber": "Account Number",
    "TenantAlarm":"Tenant Alarm",
    "TenantAlarmPhone": "Tenant Alarm Phone Number",
    "EmergencyServiceCompany": "Emergency Service Company",
    "EmergencyServiceCompanyPhone": "Emergency Service Company Phone",
    "Contract": "Contract (Yes/No)",
    "Location": "Location",
    "Passcode":"Passcode",
    "Central_Station": "Central Station (Yes/No)",
    "PhonelinetoFireDept": "Phone Line to Fire Department (Yes/No)",
    "HardWire": "Hardwired (Yes/No)",
    "Battery":"Battery (Yes/No)",
    "HeatDetectors": "Heat Detectors (Yes/No)",
    "Located":"Location",
    "AdditonalEquipment": "Additional Equipment",
    "InspectionDate":"Inspection Date",
    "KeyType":"Key Type",
    "Code": "Code",
    "name":"Fire Alarm"
  },
  "Gas": {
    "Company": "Company",
    "SuppliedByLandlord": "Supplied by Landlord",
    "MeterLocation": "Meter Location",
    "Boilers":"Boilers (Yes/No)" ,
    "Stoves": "Stoves (Yes/No)",
    "EmergencyService": "Emergency Service Company",
    "EmergencyPhone": "Emergency Service Company Phone",
    "name":"Gas"
  },
  "Heating": {
    "type": "Type",
    "location": "Location",
    "heatingCompany": "Heating Company",
    "phone": "Heating Company Phone",
    "other":"Other:",
    "contract":"Contract",
    "fhw":"Force Hot Water (Yes/No)",
    "steam":"Steam (Yes/No)",
    "fha": "Forced Hot Air (Yes/No)",
    "electric":"Electric (Yes/No)",
    "hvac":"HVAC (Yes/No)",
    "basementappt": "Basement Apartment",
    "laundryroom":"Laundry Room",
    "laundrynotes":"Laundry Notes",
    "heatpaidforby": "Heat Paid For By",
    "electricpaidForby":"Electric Paid For By",
    "thcowned": "THC Owned",
    "individual":"Individual",
    "oilfilllocationsandtanksize":"Oil Fill Location and Tank Size",
    "hotwatersuppliedby": "Hot Water Supplied By",
    "heattimerlocation": "Heat Timer Location",
    "boilercleanoutdate": "Boiler Cleanout Date",
    "comments":"Comments",
    "name":"Heating"
  },
  "Laundry": {
    "Location": "Location",
    "ServiceCompany": "Service Company",
    "ServiceCompanyPhone":"Service Company Phone",
    "THCowned": "THC Owned (Yes/No)",
    "Leased":"Leased (Yes/No)",
    "NumberofWashers": "Number of Washers",
    "NumberofDryers": "Number of Dryers",
    "CostofWashers": "Cost of Washers",
    "CostofDryers": "Cost of Dryers",
    "CoinBoxKey":"Coin Box Key:",
    "Tubular": "Tubular (Yes/No)",
    "MeterBoxCheckDate": "Meter Box Check Date",
    "name":"Laundry"
  },
  "Locksmith": {
    "EmergencyLockSmith": "Emergency Locksmith",
    "EmergencyLockPhone": "Emergency Locksmith Phone",
    "LocationOfKeys": "Location of Keys",
    "FrontRearDoorMastered": "Front/Rear Door Mastered (Yes/No)",
    "UnitsMastered": "Number of Units Mastered",
    "BoilerRoomLockAndLocation": "Boiler Room Lock and Location",
    "FobRepairContact":"FOB Repair Contact",
    "FobOrdering":"FOB Ordering",
    "name":"Locksmith"
  },
  "Personnel and Cleaning": {
    "24hroncallname": "24 Hour On Call",
    "24hroncallphone": "24 Hour On Call Phone",
    "24hroncallemail": "24 Hour On Call Email",
    "supername": "Superintendent",
    "superphone": "Superintendent Phone",
    "superaddress": "Superintendent Address",
    "superemail": "Superintendent Email",
    "onsitemanagername": "On-site Manager",
    "onsitemanageraddress": "On-site Manager Address",
    "onsitemanagerphone": "On-site Manager Phone",
    "afterhoursaccess": "After-Hours Access",
    "guardservice": "Guard Service",
    "guardservicephone": "Guard Service Phone",
    "cleaningcompany": "Cleaning Company",
    "cleaningcompanyphone": "Cleaning Company Phone",
    "cleaningspecifications": "Cleaning Specifications",
    "name":"Personnel and Cleaning"
  },
  "Plumbing": {
    "EmergencyService": "Emergency Service",
    "EmergencyPhone": "Emergency Service Phone",
    "BackUpService": "Back-Up Service",
    "BackUpPhone": "Back-Up Service Phone",
    "EmergencySewerAndDrain": "Emergency Sewer and Drain Company",
    "EmergencySewerAndDrainPhone": "Emergency Sewer and Drain Company Phone",
    "FloodsWetVacCompany": "Floods / Wet Vac Company",
    "FloodsWetVacCompanyPhone": "Floods / Wet Vac Company Phone",
    "name":"Plumbing"
  },
  "Snow Services": {
    "PlowingTHCOrPrivate": "Plowing, THC or Private",
    "Contact": "Contact Name",
    "ContactPhone": "Contact Phone",
    "ShovelingTHCOrPrivate": "Shoveling, THC or Private",
    "ShovelingPhone":"Shoveling Phone",
    "ShovelingContact": "Shoveling Contact",
    "ShovelingContactPhone": "Shoveling Contact Phone",
    "RemovalCompany": "Removal Company",
    "RemovalPhone": "Removal Company Phone",
    "MinimumMatToPlow":"Minimum Mat to Plow",
    "MinimumToShovel":"Minimum Mat to Shovel",
    "name":"Snow Services"
  },
  "Sprinkler System": {
    "Company": "Company",
    "Phone": "Company Phone",
    "Contract": "Contract (Yes/No)",
    "EmergencyPhone": "Emergency Phone",
    "ContactPerson":"Contact Person",
    "CommonHallways": "Common Hallways",
    "InsideUnits": "Inside Units",
    "WetOrDry": "Wet or Dry",
    "LocationOfShutOff": "Location of Shut Off",
    "InspectionDate":"Inspection Date",
    "name":"Sprinkler System"
  },
  "Towing": {
    "TowingCompany": "Towing Company",
    "TowingPhone": "Towing Company Phone",
    "name":"Towing"
  },
  "Trash": {
    "Dumpsters": "Dumpsters",
    "OwnedOrLeased": "Dumpsters Owned or Leased",
    "Type": "Dumpster Type",
    "Location": "Dumpster Location",
    "PickUpTrashDays": "Trash Pick Up Days",
    "CityPickUp": "City Pick Up (Yes/No)",
    "CityTrashPhone": "City Trash Phone Number",
    "PrivatePickUp": "Private Pickup (Yes/No)",
    "Other": "Other",
    "name":"Trash"
  },
  "Water Meter": {
    "TotalNumOfMeters": "Total Number Of Meters",
    "KeyType":"Key Type",
    "Code":"Code",
    "MainShutOffLocation": "Main Shut Off Location",
    "MeterReadDate":"Meter Read Date",
    "name":"Water Meter"
  },
  "AC": {
    "Company": "Company",
    "Phone": "Company Phone",
    "Contract": "Contract (Yes/No)",
    "TypeofHVACSystem":"Type of HVAC System",
    "Central": "Central (Yes/No)",
    "WallUnit":"Wall Unit (Yes/No)",
    "Location": "Location",
    "CoolingTower":"Cooling Tower (Yes/No)",
    "Maintenance":"Maintenance",
    "ChemicalTreatment": "Chemical Treatment",
    "FiltersChangeddate":"Date of Filters Changed",
    "name":"AC"
  },
  "Directions":{
    "Directions":"Directions",
    "name":"Directions"
  },
  "Leasing":{
    "Broker/Company":"Broker/Company",
    "BrokerPhone":"Broker/Company Phone",
    "name":"Leasing"
  }
}